Using ggsegExtra atlases
…
library(ggsegExtra)
## Loading required package: ggseg
## Loading required package: ggseg3d

Installing atlases

Atlases are stored in their own online repositories. The list of
repositories is periodically updated based on when we have confirmed a
new atlas that works with the packages. These data-sets can be in our
own github account (ggseg), and we are happy to add new repositories
contributed by others here. To see all confirmed atlases:

ggseg_atlas_repos()
## # A tibble: 28 × 81
##    Package    Title Version `Authors@R` Description License Encoding RoxygenNote
##    <chr>      <chr> <chr>   <chr>       <chr>       <chr>   <chr>    <chr>      
##  1 ggseg      Plot… 1.6.8.… "c(\nperso… "Contains … MIT + … UTF-8    7.3.3      
##  2 freesurfer Wrap… 1.8.1   "c(\nperso… "Wrapper f… GPL-3   UTF-8    7.3.2      
##  3 ggsegTrac… Trac… 1.0.1.… "c(person(… "This is a… MIT + … UTF-8    7.2.3      
##  4 ggseg3d    Tri-… 1.6.3   "c(person(… "Mainly co… MIT + … UTF-8    7.1.1      
##  5 rgdal      <NA>  <NA>     <NA>        <NA>       <NA>    <NA>     <NA>       
##  6 ggsegYeo2… Yeo … 1.0.2.… "c(person(… "This is a… MIT + … UTF-8    7.1.1      
##  7 ggsegICBM  ICBM… 1.0.1   "c(person(… "This is a… MIT + … UTF-8    7.1.0      
##  8 ggsegExtra <NA>  <NA>     <NA>        <NA>       <NA>    <NA>     <NA>       
##  9 ggsegScha… Scha… 2.0.4   "c(person(… "This is a… MIT + … UTF-8    7.1.1      
## 10 ggsegChen  Chen… 1.0.01  "c(person(… "This is a… MIT + … UTF-8    7.1.1      
## # ℹ 18 more rows
## # ℹ 73 more variables: LazyData <chr>, LazyDataCompression <chr>,
## #   VignetteBuilder <chr>, URL <chr>, BugReports <chr>, Language <chr>,
## #   SystemRequirements <chr>, `Config/testthat/edition` <chr>,
## #   `Config/testthat/parallel` <chr>, `Config/pak/sysreqs` <chr>,
## #   Repository <chr>, `Date/Publication` <chr>, RemoteUrl <chr>,
## #   RemoteRef <chr>, RemoteSha <chr>, NeedsCompilation <chr>, …
…
