…
tracula_raw
#> 
#> ── tracts ggseg atlas ──────────────────────────────────────────────────────────
#> Type: tract
#> Regions: 26
#> Hemispheres: midline, left, right
#> Views: axial_1, axial_2, axial_3, axial_4, axial_5, coronal_1, coronal_2,
#> coronal_3, coronal_4, coronal_5, coronal_6, sagittal_left, sagittal_midline,
#> sagittal_right
#> Palette: ✖
#> Rendering: ✔ ggseg
#> ✔ ggseg3d (centerlines)
#> ────────────────────────────────────────────────────────────────────────────────
#> # A tibble: 42 × 3
#>    hemi    region               label               
#>    <chr>   <chr>                <chr>               
#>  1 midline acomm.bbr.prep       acomm.bbr.prep      
#>  2 midline cc.bodyc.bbr.prep    cc.bodyc.bbr.prep   
#>  3 midline cc.bodyp.bbr.prep    cc.bodyp.bbr.prep   
#>  4 midline cc.bodypf.bbr.prep   cc.bodypf.bbr.prep  
#>  5 midline cc.bodypm.bbr.prep   cc.bodypm.bbr.prep  
#>  6 midline cc.bodyt.bbr.prep    cc.bodyt.bbr.prep   
#>  7 midline cc.genu.bbr.prep     cc.genu.bbr.prep    
#>  8 midline cc.rostrum.bbr.prep  cc.rostrum.bbr.prep 
#>  9 midline cc.splenium.bbr.prep cc.splenium.bbr.prep
#> 10 left    af.bbr.prep          lh.af.bbr.prep      
#> # ℹ 32 more rows
```
…
tracula
#> 
#> ── tracula ggseg atlas ─────────────────────────────────────────────────────────
#> Type: tract
#> Regions: 26
#> Hemispheres: midline, left, right
#> Views: axial_2, axial_4, coronal_3, coronal_4, sagittal_left, sagittal_midline,
#> sagittal_right
#> Palette: ✖
#> Rendering: ✔ ggseg
#> ✔ ggseg3d (centerlines)
#> ────────────────────────────────────────────────────────────────────────────────
#> # A tibble: 42 × 4
#>    hemi    region               label                group
#>    <chr>   <chr>                <chr>                <chr>
#>  1 midline acomm.bbr.prep       acomm.bbr.prep       <NA> 
#>  2 midline cc.bodyc.bbr.prep    cc.bodyc.bbr.prep    <NA> 
#>  3 midline cc.bodyp.bbr.prep    cc.bodyp.bbr.prep    <NA> 
#>  4 midline cc.bodypf.bbr.prep   cc.bodypf.bbr.prep   <NA> 
#>  5 midline cc.bodypm.bbr.prep   cc.bodypm.bbr.prep   <NA> 
#>  6 midline cc.bodyt.bbr.prep    cc.bodyt.bbr.prep    <NA> 
#>  7 midline cc.genu.bbr.prep     cc.genu.bbr.prep     <NA> 
#>  8 midline cc.rostrum.bbr.prep  cc.rostrum.bbr.prep  <NA> 
#>  9 midline cc.splenium.bbr.prep cc.splenium.bbr.prep <NA> 
#> 10 left    af.bbr.prep          lh.af.bbr.prep       <NA> 
#> # ℹ 32 more rows
```
…
