…
aseg_raw
#> 
#> ── aseg ggseg atlas ────────────────────────────────────────────────────────────
#> Type: subcortical
#> Regions: 27
#> Hemispheres: left, NA, right
#> Views: axial_1, axial_2, axial_3, axial_4, axial_5, axial_6, axial_7,
#> coronal_1, coronal_2, coronal_3, coronal_4, coronal_5, sagittal
#> Palette: ✔
#> Rendering: ✔ ggseg
#> ✔ ggseg3d (meshes)
#> ────────────────────────────────────────────────────────────────────────────────
#> # A tibble: 43 × 3
#>    hemi  region                  label                       
#>    <chr> <chr>                   <chr>                       
#>  1 left  cerebral white matter   Left-Cerebral-White-Matter  
#>  2 left  cerebral cortex         Left-Cerebral-Cortex        
#>  3 left  lateral ventricle       Left-Lateral-Ventricle      
#>  4 left  inf lat vent            Left-Inf-Lat-Vent           
#>  5 left  cerebellum white matter Left-Cerebellum-White-Matter
#>  6 left  cerebellum cortex       Left-Cerebellum-Cortex      
#>  7 left  thalamus                Left-Thalamus               
#>  8 left  caudate                 Left-Caudate                
#>  9 left  putamen                 Left-Putamen                
#> 10 left  pallidum                Left-Pallidum               
#> # ℹ 33 more rows
```
…
aseg
#> 
#> ── aseg ggseg atlas ────────────────────────────────────────────────────────────
#> Type: subcortical
#> Regions: 17
#> Hemispheres: left, NA, right
#> Views: axial_3, axial_5, coronal_2, coronal_3, coronal_4, sagittal
#> Palette: ✔
#> Rendering: ✔ ggseg
#> ✔ ggseg3d (meshes)
#> ────────────────────────────────────────────────────────────────────────────────
#> # A tibble: 27 × 4
#>    hemi  region            label               structure    
#>    <chr> <chr>             <chr>               <chr>        
#>  1 left  thalamus          Left-Thalamus       <NA>         
#>  2 left  caudate           Left-Caudate        basal ganglia
#>  3 left  putamen           Left-Putamen        basal ganglia
#>  4 left  pallidum          Left-Pallidum       basal ganglia
#>  5 <NA>  brain stem        Brain-Stem          brainstem    
#>  6 left  hippocampus       Left-Hippocampus    limbic       
#>  7 left  amygdala          Left-Amygdala       limbic       
#>  8 left  nucleus accumbens Left-Accumbens-area basal ganglia
#>  9 left  ventral DC        Left-VentralDC      diencephalon 
#> 10 left  vessel            Left-vessel         <NA>         
#> # ℹ 17 more rows
```
…
