Example creation: the aseg subcortical atlas
…
Cleaning the atlas data

The atlas data usually needs some manual editing to get it into a
nice shape for other users, and for nice plotting. We are avid tidyverse users, and as such the
procedures we use here to clean the data use tidyverse functions.

First, we will unnest the ggseg_3d column, so we can see
what the atlas data contains.

unnest(aseg2_3d, ggseg_3d)

# A tibble: 43 x 8
   atlas   surf  hemi    region                       colour  label                        roi   mesh
   <chr>   <chr> <chr>   <chr>                        <chr>   <chr>                        <chr> <list>
 1 aseg_3d LCBC  subcort Left-Cerebral-White-Matter   #F5F5F5 Left-Cerebral-White-Matter   0002  <named list [2]>
 2 aseg_3d LCBC  subcort Left-Cerebral-Cortex         #CD3E4E Left-Cerebral-Cortex         0003  <named list [2]>
 3 aseg_3d LCBC  subcort Left-Lateral-Ventricle       #781286 Left-Lateral-Ventricle       0004  <named list [2]>
 4 aseg_3d LCBC  subcort Left-Inf-Lat-Vent            #C43AFA Left-Inf-Lat-Vent            0005  <named list [2]>
 5 aseg_3d LCBC  subcort Left-Cerebellum-White-Matter #DCF8A4 Left-Cerebellum-White-Matter 0007  <named list [2]>
 6 aseg_3d LCBC  subcort Left-Cerebellum-Cortex       #E69422 Left-Cerebellum-Cortex       0008  <named list [2]>
 7 aseg_3d LCBC  subcort Left-Thalamus-Proper         #00760E Left-Thalamus-Proper         0010  <named list [2]>
 8 aseg_3d LCBC  subcort Left-Caudate                 #7ABADC Left-Caudate                 0011  <named list [2]>
 9 aseg_3d LCBC  subcort Left-Putamen                 #EC0DB0 Left-Putamen                 0012  <named list [2]>
10 aseg_3d LCBC  subcort Left-Pallidum                #0C30FF Left-Pallidum                0013  <named list [2]>
# … with 33 more rows
…
Once we are satisfied with the region names, we should also alter the
atlas name in the data, to something a little more pleasing.

unnest(aseg2_3d, ggseg_3d) |>
    mutate(region = gsub("-|_", " ", region),
           region = tolower(region),
           region = gsub("cc ", "corpus callosum ", region),

           atlas = "aseg2_3d"
           )

# A tibble: 43 x 8
   atlas    surf  hemi    region                       colour  label                        roi   mesh
   <chr>    <chr> <chr>   <chr>                        <chr>   <chr>                        <chr> <list>
 1 aseg2_3d LCBC  subcort left cerebral white matter   #F5F5F5 Left-Cerebral-White-Matter   0002  <named list [2]>
 2 aseg2_3d LCBC  subcort left cerebral cortex         #CD3E4E Left-Cerebral-Cortex         0003  <named list [2]>
 3 aseg2_3d LCBC  subcort left lateral ventricle       #781286 Left-Lateral-Ventricle       0004  <named list [2]>
 4 aseg2_3d LCBC  subcort left inf lat vent            #C43AFA Left-Inf-Lat-Vent            0005  <named list [2]>
 5 aseg2_3d LCBC  subcort left cerebellum white matter #DCF8A4 Left-Cerebellum-White-Matter 0007  <named list [2]>
 6 aseg2_3d LCBC  subcort left cerebellum cortex       #E69422 Left-Cerebellum-Cortex       0008  <named list [2]>
 7 aseg2_3d LCBC  subcort left thalamus proper         #00760E Left-Thalamus-Proper         0010  <named list [2]>
 8 aseg2_3d LCBC  subcort left caudate                 #7ABADC Left-Caudate                 0011  <named list [2]>
 9 aseg2_3d LCBC  subcort left putamen                 #EC0DB0 Left-Putamen                 0012  <named list [2]>
10 aseg2_3d LCBC  subcort left pallidum                #0C30FF Left-Pallidum                0013  <named list [2]>
# … with 33 more rows
…
We can see that the polygons are there, but they are hidden behind
something. The colour of the polygons indicate that these are
NA values. Inspecting the atlas data directly is a good
idea.

aseg2$data

Simple feature collection with 112 features and 5 fields
geometry type:  MULTIPOLYGON
dimension:      XY
bbox:           xmin: 0 ymin: 0 xmax: 578.2364 ymax: 203.3227
CRS:            NA
# A tibble: 112 x 6
   side   hemi  roi                                               geometry label          region
 * <chr>  <chr> <chr>                                       <MULTIPOLYGON> <chr>          <chr>
 1 coron… NA    0000  (((8.596379 105.0979, 8.532187 105.0767, 8.469717 1… Unknown        NA
 2 coron… left  0002  (((82.41844 102.0004, 82.39649 101.9761, 82.37604 1… Left-Cerebral… cerebral wh…
 3 coron… left  0003  (((88.86371 171.1159, 88.76302 171.0871, 88.66764 1… Left-Cerebral… cerebral co…
 4 coron… left  0004  (((101.7151 116.3753, 101.64 116.3752, 101.5623 116… Left-Lateral-… lateral ven…
 5 coron… left  0010  (((100.0108 100.9053, 99.87905 100.9186, 99.74468 1… Left-Thalamus… thalamus pr…
 6 coron… left  0012  (((116.5521 82.86438, 116.5237 82.81094, 116.4955 8… Left-Putamen   putamen
 7 coron… NA    0014  (((78.65921 86.42692, 78.55424 86.38102, 78.45397 8… 3rd-Ventricle  3rd ventric…
 8 coron… NA    0016  (((88.73587 62.17754, 88.62459 62.18198, 88.51179 6… Brain-Stem     brain stem
 9 coron… left  0017  (((113.3849 67.15476, 113.2684 67.12281, 113.1575 6… Left-Hippocam… hippocampus
10 coron… NA    0024  (((78.87844 101.8815, 78.78444 101.8421, 78.69133 1… CSF            csf
# … with 102 more rows
…
