Example creation: the DKT cortical atlas • ggsegExtra
…
# A tibble: 1 x 4
  atlas   surf  hemi              ggseg_3d
  <chr>   <chr> <chr>   <list<tbl_df[,5]>>
1 aseg_3d LCBC  subcort           [43 × 5]

Cleaning the atlas data

The atlas data usually needs some manual editing to get it into a nice shape for other users, and for nice plotting. We are avid tidyverse users, and as such the procedures we use here to clean the data use tidyverse functions.

First, we will unnest the ggseg_3d column, so we can see what the atlas data contains.

unnest(aseg2_3d, ggseg_3d)

# A tibble: 43 x 8
   atlas   surf  hemi    region                       colour  label                        roi   mesh            
   <chr>   <chr> <chr>   <chr>                        <chr>   <chr>                        <chr> <list>          
 1 aseg_3d LCBC  subcort Left-Cerebral-White-Matter   #F5F5F5 Left-Cerebral-White-Matter   0002  <named list [2]>
 2 aseg_3d LCBC  subcort Left-Cerebral-Cortex         #CD3E4E Left-Cerebral-Cortex         0003  <named list [2]>
 3 aseg_3d LCBC  subcort Left-Lateral-Ventricle       #781286 Left-Lateral-Ventricle       0004  <named list [2]>
 4 aseg_3d LCBC  subcort Left-Inf-Lat-Vent            #C43AFA Left-Inf-Lat-Vent            0005  <named list [2]>
 5 aseg_3d LCBC  subcort Left-Cerebellum-White-Matter #DCF8A4 Left-Cerebellum-White-Matter 0007  <named list [2]>
 6 aseg_3d LCBC  subcort Left-Cerebellum-Cortex       #E69422 Left-Cerebellum-Cortex       0008  <named list [2]>
 7 aseg_3d LCBC  subcort Left-Thalamus-Proper         #00760E Left-Thalamus-Proper         0010  <named list [2]>
 8 aseg_3d LCBC  subcort Left-Caudate                 #7ABADC Left-Caudate                 0011  <named list [2]>
 9 aseg_3d LCBC  subcort Left-Putamen                 #EC0DB0 Left-Putamen                 0012  <named list [2]>
10 aseg_3d LCBC  subcort Left-Pallidum                #0C30FF Left-Pallidum                0013  <named list [2]>
# … with 33 more rows
…
Once we are satisfied with the region names, we should also alter the atlas name in the data, to something a little more pleasing.

unnest(aseg2_3d, ggseg_3d) %>%
    mutate(region = gsub("-|_", " ", region),
           region = tolower(region),
           region = gsub("cc ", "corpus callosum ", region),

           atlas = "aseg2_3d"
           )

# A tibble: 43 x 8
   atlas    surf  hemi    region                       colour  label                        roi   mesh            
   <chr>    <chr> <chr>   <chr>                        <chr>   <chr>                        <chr> <list>          
 1 aseg2_3d LCBC  subcort left cerebral white matter   #F5F5F5 Left-Cerebral-White-Matter   0002  <named list [2]>
 2 aseg2_3d LCBC  subcort left cerebral cortex         #CD3E4E Left-Cerebral-Cortex         0003  <named list [2]>
 3 aseg2_3d LCBC  subcort left lateral ventricle       #781286 Left-Lateral-Ventricle       0004  <named list [2]>
 4 aseg2_3d LCBC  subcort left inf lat vent            #C43AFA Left-Inf-Lat-Vent            0005  <named list [2]>
 5 aseg2_3d LCBC  subcort left cerebellum white matter #DCF8A4 Left-Cerebellum-White-Matter 0007  <named list [2]>
 6 aseg2_3d LCBC  subcort left cerebellum cortex       #E69422 Left-Cerebellum-Cortex       0008  <named list [2]>
 7 aseg2_3d LCBC  subcort left thalamus proper         #00760E Left-Thalamus-Proper         0010  <named list [2]>
 8 aseg2_3d LCBC  subcort left caudate                 #7ABADC Left-Caudate                 0011  <named list [2]>
 9 aseg2_3d LCBC  subcort left putamen                 #EC0DB0 Left-Putamen                 0012  <named list [2]>
10 aseg2_3d LCBC  subcort left pallidum                #0C30FF Left-Pallidum                0013  <named list [2]>
# … with 33 more rows
…
