Example creation: the DKT cortical atlas • ggsegExtra
…
Cleaning the atlas data

The atlas data usually needs some manual editing to get it into a nice shape for other users, and for nice plotting. We are avid tidyverse users, and as such the procedures we use here to clean the data use tidyverse functions.

First, we will unnest the ggseg_3d column, so we can see what the atlas data contains.

unnest(dkt_3d, ggseg_3d)

# A tibble: 192 x 9
   atlas      surf    hemi  region        colour  label         roi   annot        mesh     
   <chr>      <chr>   <chr> <chr>         <chr>   <chr>         <chr> <chr>        <list>   
 1 aparc.DKT… inflat… left  caudalanteri… #7D64A0 lh_caudalant… 0001  caudalanter… <named l…
 2 aparc.DKT… inflat… left  caudalmiddle… #641900 lh_caudalmid… 0002  caudalmiddl… <named l…
 3 aparc.DKT… inflat… left  cuneus        #DC1464 lh_cuneus     0003  cuneus       <named l…
 4 aparc.DKT… inflat… left  entorhinal    #DC140A lh_entorhinal 0004  entorhinal   <named l…
 5 aparc.DKT… inflat… left  fusiform      #B4DC8C lh_fusiform   0005  fusiform     <named l…
 6 aparc.DKT… inflat… left  inferiorpari… #DC3CDC lh_inferiorp… 0006  inferiorpar… <named l…
 7 aparc.DKT… inflat… left  inferiortemp… #B42878 lh_inferiort… 0007  inferiortem… <named l…
 8 aparc.DKT… inflat… left  isthmuscingu… #8C148C lh_isthmusci… 0008  isthmuscing… <named l…
 9 aparc.DKT… inflat… left  lateraloccip… #141E8C lh_lateraloc… 0009  lateralocci… <named l…
10 aparc.DKT… inflat… left  lateralorbit… #234B32 lh_lateralor… 0010  lateralorbi… <named l…
# … with 182 more rows
…
           atlas = "dkt_3d"
           )

# A tibble: 192 x 9
   atlas  surf    hemi  region          colour label          roi   annot         mesh      
   <chr>  <chr>   <chr> <chr>           <chr>  <chr>          <chr> <chr>         <list>    
 1 dkt_3d inflat… left  caudal anterio… #7D64… lh_caudalante… 0001  caudalanteri… <named li…
 2 dkt_3d inflat… left  caudal middle … #6419… lh_caudalmidd… 0002  caudalmiddle… <named li…
 3 dkt_3d inflat… left  cuneus          #DC14… lh_cuneus      0003  cuneus        <named li…
 4 dkt_3d inflat… left  entorhinal      #DC14… lh_entorhinal  0004  entorhinal    <named li…
 5 dkt_3d inflat… left  fusiform        #B4DC… lh_fusiform    0005  fusiform      <named li…
 6 dkt_3d inflat… left  inferior parie… #DC3C… lh_inferiorpa… 0006  inferiorpari… <named li…
 7 dkt_3d inflat… left  inferior tempo… #B428… lh_inferiorte… 0007  inferiortemp… <named li…
 8 dkt_3d inflat… left  isthmus cingul… #8C14… lh_isthmuscin… 0008  isthmuscingu… <named li…
 9 dkt_3d inflat… left  lateral occipi… #141E… lh_lateralocc… 0009  lateraloccip… <named li…
10 dkt_3d inflat… left  lateral orbito… #234B… lh_lateralorb… 0010  lateralorbit… <named li…
# … with 182 more rows
…
