Using ggsegExtra atlases • ggsegExtra
…
Installing atlases

Atlases are stored in their own online repositories. The list of
repositories is periodically updated based on when we have confirmed a
new atlas that works with the packages. These data-sets can be in our
own github account (ggseg), and we are happy to add new repositories
contributed by others here. To see all confirmed atlases:

ggseg_atlas_repos()
## # A tibble: 28 × 81
##    `_type` `_user` Package     Maintainer `_published` `_upstream` `_registered`
##    <chr>   <chr>   <chr>       <chr>      <chr>        <chr>       <lgl>        
##  1 failure ggseg   ggsegExtra  Athanasia… 2026-01-31T… https://gi… TRUE         
##  2 src     ggseg   ggseg       Athanasia… 2026-01-24T… https://gi… TRUE         
##  3 src     ggseg   freesurfer  John Musc… 2026-01-13T… https://gi… TRUE         
##  4 src     ggseg   ggsegTracu… Athanasia… 2026-01-22T… https://gi… TRUE         
##  5 src     ggseg   ggseg3d     Athanasia… 2026-01-16T… https://gi… TRUE         
##  6 failure ggseg   rgdal       Roger Biv… 2026-01-28T… https://gi… TRUE         
##  7 src     ggseg   ggsegYeo20… Athanasia… 2026-01-30T… https://gi… TRUE         
##  8 src     ggseg   ggsegICBM   Athanasia… 2026-01-18T… https://gi… TRUE         
##  9 src     ggseg   ggsegSchae… Athanasia… 2026-01-24T… https://gi… TRUE         
## 10 src     ggseg   ggsegChen   Athanasia… 2026-01-22T… https://gi… TRUE         
## # ℹ 18 more rows
## # ℹ 74 more variables: `_commit` <df[,5]>, `_maintainer` <df[,8]>,
## #   `_distro` <chr>, `_jobs` <list>, `_host` <chr>, `_buildurl` <chr>,
## #   `_created` <chr>, `_owner` <chr>, `_selfowned` <lgl>, `_universes` <list>,
## #   `_nocasepkg` <chr>, `_failure` <df[,5]>, `_binaries` <list>, Title <chr>,
## #   Version <chr>, `Authors@R` <chr>, Description <chr>, License <chr>,
## #   Encoding <chr>, RoxygenNote <chr>, LazyData <chr>, …
…
